method,isplit,Ctd,iBS,iNBLL,C,Cipcw,ratio
neumiss,0,0.7305893358278766,0.14140393858930492,0.46159223175774117,0.6359315589353612,0.5298256362562608,0.4
neumiss,1,0.6839523475823406,0.16204170307815477,0.5032928735094315,0.7002840909090909,0.7065848179709071,0.4
neumiss,2,0.6252045826513911,0.16103413353835508,0.491099211670047,0.6408839779005525,0.7868524964923439,0.4
neumiss,3,0.6313410346559518,0.1521779284808504,0.48599926496845974,0.6411167512690356,0.6246843237735892,0.4
neumiss,4,0.7647299509001637,0.09895374576855412,0.3244630254325164,0.751864125932063,0.7111546855561787,0.4
