method,isplit,Ctd,iBS,iNBLL,C,Cipcw,thresh
ground_truth,0,0.7521047708138447,0.1132698006333766,0.34784828732517104,0.7557034220532319,0.6999800682863863,0.62
ground_truth,1,0.7337070777855641,0.11473631691506726,0.360902041714471,0.7329545454545454,0.7455735904188666,0.62
ground_truth,2,0.7708674304418985,0.13305881450267912,0.4130507301883277,0.7723756906077348,0.8467641286296845,0.62
ground_truth,3,0.8247112004018081,0.12867547947702812,0.39486847609218684,0.8258883248730965,0.7236871473690063,0.62
ground_truth,4,0.853518821603928,0.09591703126795899,0.30757871057036057,0.8550124275062138,0.7946323440775998,0.62
simple_impute,0,0.6814780168381666,0.12363719515440884,0.38339515500197774,0.68393536121673,0.6175750610087499,0.62
simple_impute,1,0.5861948142957253,0.1472290611506136,0.461847535577441,0.5866477272727273,0.58297583588506,0.62
simple_impute,2,0.7103109656301145,0.14717731328178685,0.4566535571545965,0.7116022099447514,0.730752649467781,0.62
simple_impute,3,0.6371170266197891,0.16500217641937295,0.5000498717347087,0.6388324873096447,0.5281889239519433,0.62
simple_impute,4,0.6714402618657938,0.14570353715401604,0.4345930686267559,0.6743993371996686,0.4880317929818956,0.62
multiple_impute,0,0.6590271281571563,0.11833773870182607,0.3691992366180488,0.6592205323193916,0.6617101135083399,0.62
multiple_impute,1,0.614926419060967,0.14099192956684783,0.43449895161133484,0.6136363636363636,0.5917646188999303,0.62
multiple_impute,2,0.6999454446262957,0.14955342389103385,0.45525941075518567,0.7,0.5829370245266742,0.62
multiple_impute,3,0.5999497739829232,0.17148757073308424,0.5168881379015622,0.6027918781725888,0.5077258889183666,0.62
multiple_impute,4,0.7647299509001637,0.13659478664819824,0.4122550155843426,0.7688483844241922,0.5625193955304914,0.62
knn_impute,0,0.7310570626753976,0.11714022743727699,0.3639075213621531,0.7343155893536122,0.6349088289028939,0.62
knn_impute,1,0.6191310441485635,0.14008983266910818,0.43914423487640925,0.6186079545454546,0.5911714162336362,0.62
knn_impute,2,0.7206764866339335,0.14279314031937543,0.4416458209616312,0.7220994475138122,0.7093662457919955,0.62
knn_impute,3,0.5863887493721748,0.17836956152967895,0.5337010410359405,0.5885786802030457,0.5282755925837129,0.62
knn_impute,4,0.7974631751227496,0.13766677851405548,0.419702684238984,0.8011599005799502,0.5766595741608299,0.62
