method,isplit,Ctd,iBS,iNBLL,C,Cipcw,ratio
ground_truth,0,0.754911131898971,0.10523711296765358,0.3317098907774427,0.7585551330798479,0.7304681903826435,0.8
ground_truth,1,0.7217939733707078,0.12371898299062904,0.3893144090844695,0.7208806818181818,0.7026423631491264,0.8
ground_truth,2,0.7408619749045281,0.143924829253662,0.43642580284678634,0.7414364640883978,0.693255846232611,0.8
ground_truth,3,0.7232546459065796,0.13457782368158613,0.43711543372525186,0.7248730964467005,0.675784448610247,0.8
ground_truth,4,0.8158756137479541,0.10256945435434184,0.3368078706519853,0.8177299088649544,0.7347102219068996,0.8
simple_impute,0,0.6445275958840038,0.1296433032914907,0.3953163930115757,0.6497148288973384,0.6107298527737549,0.8
simple_impute,1,0.6412053258584443,0.13242486721935184,0.41001735193687355,0.640625,0.633035019313244,0.8
simple_impute,2,0.6895799236224768,0.15670013671412575,0.4803889515312797,0.6919889502762431,0.6061030095997613,0.8
simple_impute,3,0.6564540431943747,0.15507146082493417,0.47420117668466555,0.6571065989847715,0.7585976051316405,0.8
simple_impute,4,0.6554828150572831,0.1233497695369596,0.39241629871209416,0.656172328086164,0.6768733721949002,0.8
multiple_impute,0,0.6744621141253508,0.1275955293882047,0.39030647998231605,0.6791825095057035,0.6089156747983926,0.8
multiple_impute,1,0.649614576033637,0.12635235200794226,0.3958382004698503,0.6491477272727273,0.6511774929726286,0.8
multiple_impute,2,0.6841243862520459,0.15817528572965917,0.4724776735559858,0.6853591160220994,0.660769940531208,0.8
multiple_impute,3,0.6609743847312908,0.15661163519250768,0.4763645178436466,0.6621827411167512,0.6993434768581819,0.8
multiple_impute,4,0.6759410801963993,0.12042588045675888,0.38274279214999296,0.6777133388566694,0.6916198895569431,0.8
knn_impute,0,0.6716557530402245,0.1270908098257625,0.3868647702902495,0.6763307984790875,0.6214495105307354,0.8
knn_impute,1,0.6524176594253679,0.12661141728948289,0.3980929259541853,0.6519886363636364,0.6306799237524532,0.8
knn_impute,2,0.6830332787779596,0.15490875851981453,0.46374308794056224,0.6859116022099447,0.6508912227189071,0.8
knn_impute,3,0.646911099949774,0.15839506015522375,0.48366065488397103,0.6479695431472081,0.6434235814833448,0.8
knn_impute,4,0.6587561374795418,0.11974848384934174,0.380353433038865,0.6611433305716653,0.6709005559478781,0.8
